{
  "blocks": [
    {
      "genre": "bachata",
      "count": 3
    },
    {
      "genre": "salsa",
      "count": 1
    },
    {
      "genre": "bachata",
      "count": 1
    },
    {
      "genre": "kizomba",
      "count": 1
    }
  ],
  "types": [
    {
      "type": "AVERAGE",
      "time_start": "00:00:00"
    },
    {
      "type": "PRIMETIME",
      "time_start": "00:30:00"
    },
    {
      "type": "VARIED",
      "time_start": "03:00:00"
    }
  ],
  "max_duration": "06:00:00"
}